解锁等级,最多允许招募的数量,每招募一次价格上涨的百分比（起始价格见track.csv表）,,,,,,
1,10,1.25,,,,,,
Id,名称,品质,描述,效果类型,效果数值,持续时间,冷却时间,招募概率
0,Arlen Ahlquest,绿,提升载具移速100%,0,1,30,600,6
1,Jonathon Jesus,蓝,提升载具移速150%,0,1.5,120,1200,3
2,Linn Ladwig,紫,提升载具移速200%,0,2,300,3600,1
3,Catrina Colas,绿,提升载具收益200%,1,2,30,600,6
4,Xuan Xu,蓝,提升载具收益400%,1,4,120,1200,3
5,Jerome Justin,紫,提升载具收益600%,1,6,300,3600,1
6,Monty Mazzella,绿,每5s获取当前赛道5min收益,2,1800,30,600,6
7,Arnoldo Anglin,蓝,每5s获取当前赛道10min收益,2,3600,120,1200,3
8,Rodger Rausch,紫,每5s获取当前赛道20min收益,2,7200,300,3600,1
9,Tinisha Tancredi,绿,减少载具购买价格30%,3,0.4,30,600,6
10,Jarred Jewett,蓝,减少载具购买价格50%,3,0.6,120,1200,3
11,Joseph Jumper,紫,减少载具购买价格80%,3,0.8,300,3600,1
