id,名称,资源Id,召唤价格（起始价格）- 金币,每买一次价格增加百分比 - 金币,召唤价格 - 钻石,本交通工具等级,赛道达到多少等级可解锁本交通工具,可适用的赛道Id,基础收益（跑一圈获得多少金币）,基础速度(多少秒跑完一圈),掉落等级,掉落时间间隔
0,桑塔纳,,100,0.1,1,1,1,0_0,45,8.67,1,18
1,捷达,,1500,0.1,2,2,2,0_0,53,8.83,1,18
2,朗逸,,4800,0.1,2,3,3,0_0,108,9,1,18
3,凌度,,14880,0.1,3,4,5,0_0,220,8.73,1,18
4,帕萨特,,46130,0.1,3,5,6,0_0,447,8.37,2,18
5,途观L,,143000,0.1,4,6,7,0_0,908,8.09,2,18
6,途昂,,443300,0.1,4,7,8,0_0,1844,7.8,2,18
7,辉昂,,1374000,0.1,5,8,9,0_0,3750,7.53,3,18
8,凯路威,,4398000,0.1,5,9,10,0_0,7614,7.27,3,18
9,迈特威,,14512000,0.1,6,10,11,0_0,15479,7.02,3,18
10,思域,,49340000,0.1,6,11,12,0_0,31426,6.77,4,18
11,INSPIRE,,172691000,0.1,8,12,13,0_0,63879,6.53,4,18
12,杰德,,621689000,0.1,10,13,14,0_0,129679,6.3,5,18
13,思铂睿,,2238000000,0.1,15,14,15,0_0,263619,6.08,5,18
14,哥瑞,,6714000000,0.1,20,15,16,0_0,535221,5.87,6,18
15,艾立坤,,18800000000,0.1,25,16,17,0_0,1088000,5.66,6,18
16,雅阁,,52640000000,0.1,35,17,18,0_0,2210000,5.47,7,18
17,冠道,,157919000000,0.1,45,18,19,0_0,4497000,5.28,7,18
18,缤智,,489549000000,0.1,60,19,20,0_0,9111000,5.08,8,18
19,奥德赛,,1567000000000,0.1,80,20,21,0_0,18551000,4.92,9,18
20,福克斯,,5170000000000,0.1,100,21,22,0_0,37597000,4.73,10,18
21,福睿斯,,17577000000000,0.1,130,22,23,0_0,76364000,4.57,11,18
22,蒙迪欧,,59761000000000,0.1,160,23,24,0_0,155486000,4.42,12,18
23,锐界,,179283000000000,0.1,200,24,25,0_0,316219000,4.27,13,18
24,翼虎,,573705000000000,0.1,250,25,26,0_0,642319000,4.12,14,18
25,翼博,,1434000000000000,0.1,300,26,27,0_0,1303000000,3.97,15,18
26,金牛座,,3012000000000000,0.1,400,27,28,0_0,2652000000,3.83,16,18
27,撼路者,,7530000000000000,0.1,500,28,29,0_0,5387000000,3.7,17,18
28,探险者,,16566000000000000,0.1,750,29,30,0_0,10932000000,3.57,18,18
29,福特GT,,43071000000000000,0.1,1000,30,30,0_0,22153000000,3.43,19,18
30,桑塔纳,,350,0.1,1,1,1,0_1,45,8.67,1,18
31,捷达,,5250,0.1,2,2,2,0_1,53,8.83,1,18
32,朗逸,,16800,0.1,2,3,3,0_1,108,9,1,18
33,凌度,,52080,0.1,3,4,5,0_1,220,8.73,1,18
34,帕萨特,,161455,0.1,3,5,6,0_1,447,8.37,2,18
35,途观L,,500500,0.1,4,6,7,0_1,908,8.09,2,18
36,途昂,,1551550,0.1,4,7,8,0_1,1844,7.8,2,18
37,辉昂,,4809000,0.1,5,8,9,0_1,3750,7.53,3,18
38,凯路威,,15393000,0.1,5,9,10,0_1,7614,7.27,3,18
39,迈特威,,50792000,0.1,6,10,11,0_1,15479,7.02,3,18
40,思域,,172690000,0.1,6,11,12,0_1,31426,6.77,4,18
41,INSPIRE,,604418500,0.1,8,12,13,0_1,63879,6.53,4,18
42,杰德,,2175911500,0.1,10,13,14,0_1,129679,6.3,5,18
43,思铂睿,,7833000000,0.1,15,14,15,0_1,263619,6.08,5,18
44,哥瑞,,23499000000,0.1,20,15,16,0_1,535221,5.87,6,18
45,艾立坤,,65800000000,0.1,25,16,17,0_1,1088000,5.66,6,18
46,雅阁,,184240000000,0.1,35,17,18,0_1,2210000,5.47,7,18
47,冠道,,552716500000,0.1,45,18,19,0_1,4497000,5.28,7,18
48,缤智,,1713421500000,0.1,60,19,20,0_1,9111000,5.08,8,18
49,奥德赛,,5484500000000,0.1,80,20,21,0_1,18551000,4.92,9,18
50,福克斯,,18095000000000,0.1,100,21,22,0_1,37597000,4.73,10,18
51,福睿斯,,61519500000000,0.1,130,22,23,0_1,76364000,4.57,11,18
52,蒙迪欧,,209163500000000,0.1,160,23,24,0_1,155486000,4.42,12,18
53,锐界,,627490500000000,0.1,200,24,25,0_1,316219000,4.27,13,18
54,翼虎,,2007967500000000,0.1,250,25,26,0_1,642319000,4.12,14,18
55,翼博,,5019000000000000,0.1,300,26,27,0_1,1303000000,3.97,15,18
56,金牛座,,10542000000000000,0.1,400,27,28,0_1,2652000000,3.83,16,18
57,撼路者,,26355000000000000,0.1,500,28,29,0_1,5387000000,3.7,17,18
58,探险者,,57981000000000000,0.1,750,29,30,0_1,10932000000,3.57,18,18
59,福特GT,,150748500000000000,0.1,1000,30,30,0_1,22153000000,3.43,19,18
60,桑塔纳,,1350,0.1,1,1,1,0_2,45,8.67,1,18
61,捷达,,20250,0.1,2,2,2,0_2,53,8.83,1,18
62,朗逸,,64800,0.1,2,3,3,0_2,108,9,1,18
63,凌度,,200880,0.1,3,4,5,0_2,220,8.73,1,18
64,帕萨特,,622755,0.1,3,5,6,0_2,447,8.37,2,18
65,途观L,,1930500,0.1,4,6,7,0_2,908,8.09,2,18
66,途昂,,5984550,0.1,4,7,8,0_2,1844,7.8,2,18
67,辉昂,,18549000,0.1,5,8,9,0_2,3750,7.53,3,18
68,凯路威,,59373000,0.1,5,9,10,0_2,7614,7.27,3,18
69,迈特威,,195912000,0.1,6,10,11,0_2,15479,7.02,3,18
70,思域,,666090000,0.1,6,11,12,0_2,31426,6.77,4,18
71,INSPIRE,,2331328500,0.1,8,12,13,0_2,63879,6.53,4,18
72,杰德,,8392801500,0.1,10,13,14,0_2,129679,6.3,5,18
73,思铂睿,,30213000000,0.1,15,14,15,0_2,263619,6.08,5,18
74,哥瑞,,90639000000,0.1,20,15,16,0_2,535221,5.87,6,18
75,艾立坤,,253800000000,0.1,25,16,17,0_2,1088000,5.66,6,18
76,雅阁,,710640000000,0.1,35,17,18,0_2,2210000,5.47,7,18
77,冠道,,2131906500000,0.1,45,18,19,0_2,4497000,5.28,7,18
78,缤智,,6608911500000,0.1,60,19,20,0_2,9111000,5.08,8,18
79,奥德赛,,21154500000000,0.1,80,20,21,0_2,18551000,4.92,9,18
80,福克斯,,69795000000000,0.1,100,21,22,0_2,37597000,4.73,10,18
81,福睿斯,,237289500000000,0.1,130,22,23,0_2,76364000,4.57,11,18
82,蒙迪欧,,806773500000000,0.1,160,23,24,0_2,155486000,4.42,12,18
83,锐界,,2420320500000000,0.1,200,24,25,0_2,316219000,4.27,13,18
84,翼虎,,7745017500000000,0.1,250,25,26,0_2,642319000,4.12,14,18
85,翼博,,19359000000000000,0.1,300,26,27,0_2,1303000000,3.97,15,18
86,金牛座,,40662000000000000,0.1,400,27,28,0_2,2652000000,3.83,16,18
87,撼路者,,101655000000000000,0.1,500,28,29,0_2,5387000000,3.7,17,18
88,探险者,,223641000000000000,0.1,750,29,30,0_2,10932000000,3.57,18,18
89,福特GT,,581458500000000000,0.1,1000,30,30,0_2,22153000000,3.43,19,18
90,桑塔纳,,6750,0.1,1,1,1,0_3,45,8.67,1,18
91,捷达,,101250,0.1,2,2,2,0_3,53,8.83,1,18
92,朗逸,,324000,0.1,2,3,3,0_3,108,9,1,18
93,凌度,,1004400,0.1,3,4,5,0_3,220,8.73,1,18
94,帕萨特,,3113775,0.1,3,5,6,0_3,447,8.37,2,18
95,途观L,,9652500,0.1,4,6,7,0_3,908,8.09,2,18
96,途昂,,29922750,0.1,4,7,8,0_3,1844,7.8,2,18
97,辉昂,,92745000,0.1,5,8,9,0_3,3750,7.53,3,18
98,凯路威,,296865000,0.1,5,9,10,0_3,7614,7.27,3,18
99,迈特威,,979560000,0.1,6,10,11,0_3,15479,7.02,3,18
100,思域,,3330450000,0.1,6,11,12,0_3,31426,6.77,4,18
101,INSPIRE,,11656642500,0.1,8,12,13,0_3,63879,6.53,4,18
102,杰德,,41964007500,0.1,10,13,14,0_3,129679,6.3,5,18
103,思铂睿,,151065000000,0.1,15,14,15,0_3,263619,6.08,5,18
104,哥瑞,,453195000000,0.1,20,15,16,0_3,535221,5.87,6,18
105,艾立坤,,1269000000000,0.1,25,16,17,0_3,1088000,5.66,6,18
106,雅阁,,3553200000000,0.1,35,17,18,0_3,2210000,5.47,7,18
107,冠道,,10659532500000,0.1,45,18,19,0_3,4497000,5.28,7,18
108,缤智,,33044557500000,0.1,60,19,20,0_3,9111000,5.08,8,18
109,奥德赛,,105772500000000,0.1,80,20,21,0_3,18551000,4.92,9,18
110,福克斯,,348975000000000,0.1,100,21,22,0_3,37597000,4.73,10,18
111,福睿斯,,1186447500000000,0.1,130,22,23,0_3,76364000,4.57,11,18
112,蒙迪欧,,4033867500000000,0.1,160,23,24,0_3,155486000,4.42,12,18
113,锐界,,12101602500000000,0.1,200,24,25,0_3,316219000,4.27,13,18
114,翼虎,,38725087500000000,0.1,250,25,26,0_3,642319000,4.12,14,18
115,翼博,,96795000000000000,0.1,300,26,27,0_3,1303000000,3.97,15,18
116,金牛座,,203310000000000000,0.1,400,27,28,0_3,2652000000,3.83,16,18
117,撼路者,,508275000000000000,0.1,500,28,29,0_3,5387000000,3.7,17,18
118,探险者,,1118205000000000000,0.1,750,29,30,0_3,10932000000,3.57,18,18
119,福特GT,,2907292500000000000,0.1,1000,30,30,0_3,22153000000,3.43,19,18
120,桑塔纳,,18500,0.1,1,1,1,0_4,45,8.67,1,18
121,捷达,,277500,0.1,2,2,2,0_4,53,8.83,1,18
122,朗逸,,888000,0.1,2,3,3,0_4,108,9,1,18
123,凌度,,2752800,0.1,3,4,5,0_4,220,8.73,1,18
124,帕萨特,,8534050,0.1,3,5,6,0_4,447,8.37,2,18
125,途观L,,26455000,0.1,4,6,7,0_4,908,8.09,2,18
126,途昂,,82010500,0.1,4,7,8,0_4,1844,7.8,2,18
127,辉昂,,254190000,0.1,5,8,9,0_4,3750,7.53,3,18
128,凯路威,,813630000,0.1,5,9,10,0_4,7614,7.27,3,18
129,迈特威,,2684720000,0.1,6,10,11,0_4,15479,7.02,3,18
130,思域,,9127900000,0.1,6,11,12,0_4,31426,6.77,4,18
131,INSPIRE,,31947835000,0.1,8,12,13,0_4,63879,6.53,4,18
132,杰德,,115012465000,0.1,10,13,14,0_4,129679,6.3,5,18
133,思铂睿,,414030000000,0.1,15,14,15,0_4,263619,6.08,5,18
134,哥瑞,,1242090000000,0.1,20,15,16,0_4,535221,5.87,6,18
135,艾立坤,,3478000000000,0.1,25,16,17,0_4,1088000,5.66,6,18
136,雅阁,,9738400000000,0.1,35,17,18,0_4,2210000,5.47,7,18
137,冠道,,29215015000000,0.1,45,18,19,0_4,4497000,5.28,7,18
138,缤智,,90566565000000,0.1,60,19,20,0_4,9111000,5.08,8,18
139,奥德赛,,289895000000000,0.1,80,20,21,0_4,18551000,4.92,9,18
140,福克斯,,956450000000000,0.1,100,21,22,0_4,37597000,4.73,10,18
141,福睿斯,,3251745000000000,0.1,130,22,23,0_4,76364000,4.57,11,18
142,蒙迪欧,,11055785000000000,0.1,160,23,24,0_4,155486000,4.42,12,18
143,锐界,,33167355000000000,0.1,200,24,25,0_4,316219000,4.27,13,18
144,翼虎,,106135425000000000,0.1,250,25,26,0_4,642319000,4.12,14,18
145,翼博,,265290000000000000,0.1,300,26,27,0_4,1303000000,3.97,15,18
146,金牛座,,557220000000000000,0.1,400,27,28,0_4,2652000000,3.83,16,18
147,撼路者,,1393050000000000000,0.1,500,28,29,0_4,5387000000,3.7,17,18
148,探险者,,3064710000000000000,0.1,750,29,30,0_4,10932000000,3.57,18,18
149,福特GT,,7968135000000000000,0.1,1000,30,30,0_4,22153000000,3.43,19,18
150,桑塔纳,,100,0.1,1,1,1,1_0,45,8.67,1,18
151,捷达,,1500,0.1,2,2,2,1_0,53,8.83,1,18
152,朗逸,,4950,0.1,2,3,3,1_0,108,9,1,18
153,凌度,,15840,0.1,3,4,5,1_0,220,8.73,1,18
154,帕萨特,,50690,0.1,3,5,6,1_0,447,8.37,2,18
155,途观L,,162205,0.1,4,6,7,1_0,908,8.09,2,18
156,途昂,,519056,0.1,4,7,8,1_0,1844,7.8,2,18
157,辉昂,,1660711,0.1,5,8,9,1_0,3750,7.53,3,18
158,凯路威,,5481796,0.1,5,9,10,1_0,7614,7.27,3,18
159,迈特威,,18636364,0.1,6,10,11,1_0,15479,7.02,3,18
160,思域,,65226249,0.1,6,11,12,1_0,31426,6.77,4,18
161,INSPIRE,,234815819,0.1,8,12,13,1_0,63879,6.53,4,18
162,杰德,,868820435,0.1,10,13,14,1_0,129679,6.3,5,18
163,思铂睿,,3214523250,0.1,15,14,15,1_0,263619,6.08,5,18
164,哥瑞,,9965022076,0.1,20,15,16,1_0,535221,5.87,6,18
165,艾立坤,,28899751394,0.1,25,16,17,1_0,1088000,5.66,6,18
166,雅阁,,83809279044,0.1,35,17,18,1_0,2210000,5.47,7,18
167,冠道,,259807172915,0.1,45,18,19,1_0,4497000,5.28,7,18
168,缤智,,831383117847,0.1,60,19,20,1_0,9111000,5.08,8,18
169,奥德赛,,2744316959206,0.1,80,20,21,1_0,18551000,4.92,9,18
170,福克斯,,9328751210341,0.1,100,21,22,1_0,37597000,4.73,10,18
171,福睿斯,,32648824835575,0.1,130,22,23,1_0,76364000,4.57,11,18
172,蒙迪欧,,114269400945116,0.1,160,23,24,1_0,155486000,4.42,12,18
173,锐界,,354235142929859,0.1,200,24,25,1_0,316219000,4.27,13,18
174,翼虎,,1168974786162460,0.1,250,25,26,1_0,642319000,4.12,14,18
175,翼博,,3038799577006480,0.1,300,26,27,1_0,1303000000,3.97,15,18
176,金牛座,,6686630533672410,0.1,400,27,28,1_0,2652000000,3.83,16,18
177,撼路者,,17385239387548300,0.1,500,28,29,1_0,5387000000,3.7,17,18
178,探险者,,39986050591361000,0.1,750,29,30,1_0,10932000000,3.57,18,18
179,福特GT,,107960888351452000,0.1,1000,30,30,1_0,22153000000,3.43,19,18
180,桑塔纳,,365,0.1,1,1,1,1_1,45,8.67,1,18
181,捷达,,5475,0.1,2,2,2,1_1,53,8.83,1,18
182,朗逸,,18067,0.1,2,3,3,1_1,108,9,1,18
183,凌度,,57816,0.1,3,4,5,1_1,220,8.73,1,18
184,帕萨特,,185018,0.1,3,5,6,1_1,447,8.37,2,18
185,途观L,,592048,0.1,4,6,7,1_1,908,8.09,2,18
186,途昂,,1894555,0.1,4,7,8,1_1,1844,7.8,2,18
187,辉昂,,6061595,0.1,5,8,9,1_1,3750,7.53,3,18
188,凯路威,,20008559,0.1,5,9,10,1_1,7614,7.27,3,18
189,迈特威,,68022731,0.1,6,10,11,1_1,15479,7.02,3,18
190,思域,,238075809,0.1,6,11,12,1_1,31426,6.77,4,18
191,INSPIRE,,857077740,0.1,8,12,13,1_1,63879,6.53,4,18
192,杰德,,3171194589,0.1,10,13,14,1_1,129679,6.3,5,18
193,思铂睿,,11733009864,0.1,15,14,15,1_1,263619,6.08,5,18
194,哥瑞,,36372330579,0.1,20,15,16,1_1,535221,5.87,6,18
195,艾立坤,,105484092589,0.1,25,16,17,1_1,1088000,5.66,6,18
196,雅阁,,305903868510,0.1,35,17,18,1_1,2210000,5.47,7,18
197,冠道,,948296181139,0.1,45,18,19,1_1,4497000,5.28,7,18
198,缤智,,3034548380142,0.1,60,19,20,1_1,9111000,5.08,8,18
199,奥德赛,,10016756901103,0.1,80,20,21,1_1,18551000,4.92,9,18
200,福克斯,,34049941917747,0.1,100,21,22,1_1,37597000,4.73,10,18
201,福睿斯,,119168210649850,0.1,130,22,23,1_1,76364000,4.57,11,18
202,蒙迪欧,,417083313449673,0.1,160,23,24,1_1,155486000,4.42,12,18
203,锐界,,1292958271693990,0.1,200,24,25,1_1,316219000,4.27,13,18
204,翼虎,,4266757969492980,0.1,250,25,26,1_1,642319000,4.12,14,18
205,翼博,,11091618456073600,0.1,300,26,27,1_1,1303000000,3.97,15,18
206,金牛座,,24406201447904300,0.1,400,27,28,1_1,2652000000,3.83,16,18
207,撼路者,,63456123764551200,0.1,500,28,29,1_1,5387000000,3.7,17,18
208,探险者,,145949084658468000,0.1,750,29,30,1_1,10932000000,3.57,18,18
209,福特GT,,394057242482801000,0.1,1000,30,30,1_1,22153000000,3.43,19,18
210,桑塔纳,,1380,0.1,1,1,1,1_2,45,8.67,1,18
211,捷达,,20700,0.1,2,2,2,1_2,53,8.83,1,18
212,朗逸,,68310,0.1,2,3,3,1_2,108,9,1,18
213,凌度,,218592,0.1,3,4,5,1_2,220,8.73,1,18
214,帕萨特,,699523,0.1,3,5,6,1_2,447,8.37,2,18
215,途观L,,2238430,0.1,4,6,7,1_2,908,8.09,2,18
216,途昂,,7162977,0.1,4,7,8,1_2,1844,7.8,2,18
217,辉昂,,22917812,0.1,5,8,9,1_2,3750,7.53,3,18
218,凯路威,,75648798,0.1,5,9,10,1_2,7614,7.27,3,18
219,迈特威,,257181833,0.1,6,10,11,1_2,15479,7.02,3,18
220,思域,,900122240,0.1,6,11,12,1_2,31426,6.77,4,18
221,INSPIRE,,3240458307,0.1,8,12,13,1_2,63879,6.53,4,18
222,杰德,,11989722007,0.1,10,13,14,1_2,129679,6.3,5,18
223,思铂睿,,44360420857,0.1,15,14,15,1_2,263619,6.08,5,18
224,哥瑞,,137517304657,0.1,20,15,16,1_2,535221,5.87,6,18
225,艾立坤,,398816569244,0.1,25,16,17,1_2,1088000,5.66,6,18
226,雅阁,,1156568050807,0.1,35,17,18,1_2,2210000,5.47,7,18
227,冠道,,3585338986227,0.1,45,18,19,1_2,4497000,5.28,7,18
228,缤智,,11473087026292,0.1,60,19,20,1_2,9111000,5.08,8,18
229,奥德赛,,37871574037050,0.1,80,20,21,1_2,18551000,4.92,9,18
230,福克斯,,128736766702716,0.1,100,21,22,1_2,37597000,4.73,10,18
231,福睿斯,,450553782730938,0.1,130,22,23,1_2,76364000,4.57,11,18
232,蒙迪欧,,1576917733042600,0.1,160,23,24,1_2,155486000,4.42,12,18
233,锐界,,4888444972432060,0.1,200,24,25,1_2,316219000,4.27,13,18
234,翼虎,,16131852049041900,0.1,250,25,26,1_2,642319000,4.12,14,18
235,翼博,,41935434162689400,0.1,300,26,27,1_2,1303000000,3.97,15,18
236,金牛座,,92275501364679300,0.1,400,27,28,1_2,2652000000,3.83,16,18
237,撼路者,,239916303548166000,0.1,500,28,29,1_2,5387000000,3.7,17,18
238,探险者,,551807498160782000,0.1,750,29,30,1_2,10932000000,3.57,18,18
239,福特GT,,1489860259250040000,0.1,1000,30,30,1_2,22153000000,3.43,19,18
240,桑塔纳,,6680,0.1,1,1,1,1_3,45,8.67,1,18
241,捷达,,100200,0.1,2,2,2,1_3,53,8.83,1,18
242,朗逸,,330660,0.1,2,3,3,1_3,108,9,1,18
243,凌度,,1058112,0.1,3,4,5,1_3,220,8.73,1,18
244,帕萨特,,3386100,0.1,3,5,6,1_3,447,8.37,2,18
245,途观L,,10835301,0.1,4,6,7,1_3,908,8.09,2,18
246,途昂,,34672965,0.1,4,7,8,1_3,1844,7.8,2,18
247,辉昂,,110935500,0.1,5,8,9,1_3,3750,7.53,3,18
248,凯路威,,366184038,0.1,5,9,10,1_3,7614,7.27,3,18
249,迈特威,,1244909165,0.1,6,10,11,1_3,15479,7.02,3,18
250,思域,,4357113451,0.1,6,11,12,1_3,31426,6.77,4,18
251,INSPIRE,,15685696734,0.1,8,12,13,1_3,63879,6.53,4,18
252,杰德,,58037205081,0.1,10,13,14,1_3,129679,6.3,5,18
253,思铂睿,,214730153134,0.1,15,14,15,1_3,263619,6.08,5,18
254,哥瑞,,665663474718,0.1,20,15,16,1_3,535221,5.87,6,18
255,艾立坤,,1930503393152,0.1,25,16,17,1_3,1088000,5.66,6,18
256,雅阁,,5598459840142,0.1,35,17,18,1_3,2210000,5.47,7,18
257,冠道,,17355119150722,0.1,45,18,19,1_3,4497000,5.28,7,18
258,缤智,,55536392272199,0.1,60,19,20,1_3,9111000,5.08,8,18
259,奥德赛,,183320372874998,0.1,80,20,21,1_3,18551000,4.92,9,18
260,福克斯,,623160580850830,0.1,100,21,22,1_3,37597000,4.73,10,18
261,福睿斯,,2180941499016430,0.1,130,22,23,1_3,76364000,4.57,11,18
262,蒙迪欧,,7633195983133740,0.1,160,23,24,1_3,155486000,4.42,12,18
263,锐界,,23662907547714600,0.1,200,24,25,1_3,316219000,4.27,13,18
264,翼虎,,78087515715652300,0.1,250,25,26,1_3,642319000,4.12,14,18
265,翼博,,202991811744033000,0.1,300,26,27,1_3,1303000000,3.97,15,18
266,金牛座,,446666919649317000,0.1,400,27,28,1_3,2652000000,3.83,16,18
267,撼路者,,1161333991088220000,0.1,500,28,29,1_3,5387000000,3.7,17,18
268,探险者,,2671068179502920000,0.1,750,29,30,1_3,10932000000,3.57,18,18
269,福特GT,,7211787341877020000,0.1,1000,30,30,1_3,22153000000,3.43,19,18
270,桑塔纳,,18355,0.1,1,1,1,1_4,45,8.67,1,18
271,捷达,,275325,0.1,2,2,2,1_4,53,8.83,1,18
272,朗逸,,908572,0.1,2,3,3,1_4,108,9,1,18
273,凌度,,2907432,0.1,3,4,5,1_4,220,8.73,1,18
274,帕萨特,,9304173,0.1,3,5,6,1_4,447,8.37,2,18
275,途观L,,29772749,0.1,4,6,7,1_4,908,8.09,2,18
276,途昂,,95272797,0.1,4,7,8,1_4,1844,7.8,2,18
277,辉昂,,304823519,0.1,5,8,9,1_4,3750,7.53,3,18
278,凯路威,,1006183836,0.1,5,9,10,1_4,7614,7.27,3,18
279,迈特威,,3420704750,0.1,6,10,11,1_4,15479,7.02,3,18
280,思域,,11972278055,0.1,6,11,12,1_4,31426,6.77,4,18
281,INSPIRE,,43100443647,0.1,8,12,13,1_4,63879,6.53,4,18
282,杰德,,159471990909,0.1,10,13,14,1_4,129679,6.3,5,18
283,思铂睿,,590025742633,0.1,15,14,15,1_4,263619,6.08,5,18
284,哥瑞,,1829079802163,0.1,20,15,16,1_4,535221,5.87,6,18
285,艾立坤,,5304549368460,0.1,25,16,17,1_4,1088000,5.66,6,18
286,雅阁,,15383193168536,0.1,35,17,18,1_4,2210000,5.47,7,18
287,冠道,,47687606588550,0.1,45,18,19,1_4,4497000,5.28,7,18
288,缤智,,152600371280870,0.1,60,19,20,1_4,9111000,5.08,8,18
289,奥德赛,,503719377862363,0.1,80,20,21,1_4,18551000,4.92,9,18
290,福克斯,,1712292284658230,0.1,100,21,22,1_4,37597000,4.73,10,18
291,福睿斯,,5992691798569830,0.1,130,22,23,1_4,76364000,4.57,11,18
292,蒙迪欧,,20974148543476000,0.1,160,23,24,1_4,155486000,4.42,12,18
293,锐界,,65019860484775700,0.1,200,24,25,1_4,316219000,4.27,13,18
294,翼虎,,214565322000120000,0.1,250,25,26,1_4,642319000,4.12,14,18
295,翼博,,557771662359539000,0.1,300,26,27,1_4,1303000000,3.97,15,18
296,金牛座,,1227331034455570000,0.1,400,27,28,1_4,2652000000,3.83,16,18
297,撼路者,,3191060689584480000,0.1,500,28,29,1_4,5387000000,3.7,17,18
298,探险者,,7339439586044320000,0.1,750,29,30,1_4,10932000000,3.57,18,18
299,福特GT,,19816221056909100000,0.1,1000,30,30,1_4,22153000000,3.43,19,18
300,桑塔纳,,100,0.1,1,1,1,2_0,45,8.67,1,18
301,捷达,,1500,0.1,2,2,2,2_0,53,8.83,1,18
302,朗逸,,4650,0.1,2,3,3,2_0,108,9,1,18
303,凌度,,13950,0.1,3,4,5,2_0,220,8.73,1,18
304,帕萨特,,41851,0.1,3,5,6,2_0,447,8.37,2,18
305,途观L,,125552,0.1,4,6,7,2_0,908,8.09,2,18
306,途昂,,376658,0.1,4,7,8,2_0,1844,7.8,2,18
307,辉昂,,1129780,0.1,5,8,9,2_0,3750,7.53,3,18
308,凯路威,,3503306,0.1,5,9,10,2_0,7614,7.27,3,18
309,迈特威,,11209466,0.1,6,10,11,2_0,15479,7.02,3,18
310,思域,,36990622,0.1,6,11,12,2_0,31426,6.77,4,18
311,INSPIRE,,125768866,0.1,8,12,13,2_0,63879,6.53,4,18
312,杰德,,440192053,0.1,10,13,14,2_0,129679,6.3,5,18
313,思铂睿,,1540615260,0.1,15,14,15,2_0,263619,6.08,5,18
314,哥瑞,,4467784254,0.1,20,15,16,2_0,535221,5.87,6,18
315,艾立坤,,12063549842,0.1,25,16,17,2_0,1088000,5.66,6,18
316,雅阁,,32571584575,0.1,35,17,18,2_0,2210000,5.47,7,18
317,冠道,,94456976508,0.1,45,18,19,2_0,4497000,5.28,7,18
318,缤智,,283370989338,0.1,60,19,20,2_0,9111000,5.08,8,18
319,奥德赛,,878706609242,0.1,80,20,21,2_0,18551000,4.92,9,18
320,福克斯,,2811244316600,0.1,100,21,22,2_0,37597000,4.73,10,18
321,福睿斯,,9276562483791,0.1,130,22,23,2_0,76364000,4.57,11,18
322,蒙迪欧,,30612233982825,0.1,160,23,24,2_0,155486000,4.42,12,18
323,锐界,,88775478550195,0.1,200,24,25,2_0,316219000,4.27,13,18
324,翼虎,,275203686403888,0.1,250,25,26,2_0,642319000,4.12,14,18
325,翼博,,660362927309925,0.1,300,26,27,2_0,1303000000,3.97,15,18
326,金牛座,,1321002157099900,0.1,400,27,28,2_0,2652000000,3.83,16,18
327,撼路者,,3170405177039750,0.1,500,28,29,2_0,5387000000,3.7,17,18
328,探险者,,6657850871783480,0.1,750,29,30,2_0,10932000000,3.57,18,18
329,福特GT,,16644386040347100,0.1,1000,30,30,2_0,22153000000,3.43,19,18
330,桑塔纳,,335,0.1,1,1,1,2_1,45,8.67,1,18
331,捷达,,5025,0.1,2,2,2,2_1,53,8.83,1,18
332,朗逸,,15577,0.1,2,3,3,2_1,108,9,1,18
333,凌度,,46732,0.1,3,4,5,2_1,220,8.73,1,18
334,帕萨特,,140203,0.1,3,5,6,2_1,447,8.37,2,18
335,途观L,,420602,0.1,4,6,7,2_1,908,8.09,2,18
336,途昂,,1261806,0.1,4,7,8,2_1,1844,7.8,2,18
337,辉昂,,3784765,0.1,5,8,9,2_1,3750,7.53,3,18
338,凯路威,,11736078,0.1,5,9,10,2_1,7614,7.27,3,18
339,迈特威,,37551713,0.1,6,10,11,2_1,15479,7.02,3,18
340,思域,,123918586,0.1,6,11,12,2_1,31426,6.77,4,18
341,INSPIRE,,421325704,0.1,8,12,13,2_1,63879,6.53,4,18
342,杰德,,1474643380,0.1,10,13,14,2_1,129679,6.3,5,18
343,思铂睿,,5161061122,0.1,15,14,15,2_1,263619,6.08,5,18
344,哥瑞,,14967077254,0.1,20,15,16,2_1,535221,5.87,6,18
345,艾立坤,,40412891973,0.1,25,16,17,2_1,1088000,5.66,6,18
346,雅阁,,109114808328,0.1,35,17,18,2_1,2210000,5.47,7,18
347,冠道,,316430871303,0.1,45,18,19,2_1,4497000,5.28,7,18
348,缤智,,949292814284,0.1,60,19,20,2_1,9111000,5.08,8,18
349,奥德赛,,2943667140960,0.1,80,20,21,2_1,18551000,4.92,9,18
350,福克斯,,9417668460611,0.1,100,21,22,2_1,37597000,4.73,10,18
351,福睿斯,,31076484320703,0.1,130,22,23,2_1,76364000,4.57,11,18
352,蒙迪欧,,102550983842467,0.1,160,23,24,2_1,155486000,4.42,12,18
353,锐界,,297397853143154,0.1,200,24,25,2_1,316219000,4.27,13,18
354,翼虎,,921932349453025,0.1,250,25,26,2_1,642319000,4.12,14,18
355,翼博,,2212215806488250,0.1,300,26,27,2_1,1303000000,3.97,15,18
356,金牛座,,4425357226284660,0.1,400,27,28,2_1,2652000000,3.83,16,18
357,撼路者,,10620857343083200,0.1,500,28,29,2_1,5387000000,3.7,17,18
358,探险者,,22303800420474700,0.1,750,29,30,2_1,10932000000,3.57,18,18
359,福特GT,,55758693235162800,0.1,1000,30,30,2_1,22153000000,3.43,19,18
360,桑塔纳,,1335,0.1,1,1,1,2_2,45,8.67,1,18
361,捷达,,20025,0.1,2,2,2,2_2,53,8.83,1,18
362,朗逸,,62077,0.1,2,3,3,2_2,108,9,1,18
363,凌度,,186232,0.1,3,4,5,2_2,220,8.73,1,18
364,帕萨特,,558722,0.1,3,5,6,2_2,447,8.37,2,18
365,途观L,,1676131,0.1,4,6,7,2_2,908,8.09,2,18
366,途昂,,5028393,0.1,4,7,8,2_2,1844,7.8,2,18
367,辉昂,,15082572,0.1,5,8,9,2_2,3750,7.53,3,18
368,凯路威,,46769147,0.1,5,9,10,2_2,7614,7.27,3,18
369,迈特威,,149646382,0.1,6,10,11,2_2,15479,7.02,3,18
370,思域,,493824813,0.1,6,11,12,2_2,31426,6.77,4,18
371,INSPIRE,,1679014373,0.1,8,12,13,2_2,63879,6.53,4,18
372,杰德,,5876563917,0.1,10,13,14,2_2,129679,6.3,5,18
373,思铂睿,,20567213725,0.1,15,14,15,2_2,263619,6.08,5,18
374,哥瑞,,59644919804,0.1,20,15,16,2_2,535221,5.87,6,18
375,艾立坤,,161048390402,0.1,25,16,17,2_2,1088000,5.66,6,18
376,雅阁,,434830654085,0.1,35,17,18,2_2,2210000,5.47,7,18
377,冠道,,1261000636387,0.1,45,18,19,2_2,4497000,5.28,7,18
378,缤智,,3783002707672,0.1,60,19,20,2_2,9111000,5.08,8,18
379,奥德赛,,11730733233380,0.1,80,20,21,2_2,18551000,4.92,9,18
380,福克斯,,37530111626616,0.1,100,21,22,2_2,37597000,4.73,10,18
381,福睿斯,,123842109158623,0.1,130,22,23,2_2,76364000,4.57,11,18
382,蒙迪欧,,408673323670726,0.1,160,23,24,2_2,155486000,4.42,12,18
383,锐界,,1185152638645100,0.1,200,24,25,2_2,316219000,4.27,13,18
384,翼虎,,3673969213491900,0.1,250,25,26,2_2,642319000,4.12,14,18
385,翼博,,8815845079587510,0.1,300,26,27,2_2,1303000000,3.97,15,18
386,金牛座,,17635378797283600,0.1,400,27,28,2_2,2652000000,3.83,16,18
387,撼路者,,42324909113480700,0.1,500,28,29,2_2,5387000000,3.7,17,18
388,探险者,,88882309138309500,0.1,750,29,30,2_2,10932000000,3.57,18,18
389,福特GT,,222202553638634000,0.1,1000,30,30,2_2,22153000000,3.43,19,18
390,桑塔纳,,6635,0.1,1,1,1,2_3,45,8.67,1,18
391,捷达,,99525,0.1,2,2,2,2_3,53,8.83,1,18
392,朗逸,,308527,0.1,2,3,3,2_3,108,9,1,18
393,凌度,,925582,0.1,3,4,5,2_3,220,8.73,1,18
394,帕萨特,,2776871,0.1,3,5,6,2_3,447,8.37,2,18
395,途观L,,8330435,0.1,4,6,7,2_3,908,8.09,2,18
396,途昂,,24991305,0.1,4,7,8,2_3,1844,7.8,2,18
397,辉昂,,74960949,0.1,5,8,9,2_3,3750,7.53,3,18
398,凯路威,,232444412,0.1,5,9,10,2_3,7614,7.27,3,18
399,迈特威,,743748126,0.1,6,10,11,2_3,15479,7.02,3,18
400,思域,,2454327816,0.1,6,11,12,2_3,31426,6.77,4,18
401,INSPIRE,,8344764319,0.1,8,12,13,2_3,63879,6.53,4,18
402,杰德,,29206742768,0.1,10,13,14,2_3,129679,6.3,5,18
403,思铂睿,,102219822523,0.1,15,14,15,2_3,263619,6.08,5,18
404,哥瑞,,296437485318,0.1,20,15,16,2_3,535221,5.87,6,18
405,艾立坤,,800416532072,0.1,25,16,17,2_3,1088000,5.66,6,18
406,雅阁,,2161124636596,0.1,35,17,18,2_3,2210000,5.47,7,18
407,冠道,,6267220391331,0.1,45,18,19,2_3,4497000,5.28,7,18
408,缤智,,18801665142625,0.1,60,19,20,2_3,9111000,5.08,8,18
409,奥德赛,,58302183523207,0.1,80,20,21,2_3,18551000,4.92,9,18
410,福克斯,,186526060406443,0.1,100,21,22,2_3,37597000,4.73,10,18
411,福睿斯,,615499920799597,0.1,130,22,23,2_3,76364000,4.57,11,18
412,蒙迪欧,,2031121724760500,0.1,160,23,24,2_3,155486000,4.42,12,18
413,锐界,,5890253001805440,0.1,200,24,25,2_3,316219000,4.27,13,18
414,翼虎,,18259764592898000,0.1,250,25,26,2_3,642319000,4.12,14,18
415,翼博,,43815080227013600,0.1,300,26,27,2_3,1303000000,3.97,15,18
416,金牛座,,87648493123578200,0.1,400,27,28,2_3,2652000000,3.83,16,18
417,撼路者,,210356383496588000,0.1,500,28,29,2_3,5387000000,3.7,17,18
418,探险者,,441748405342834000,0.1,750,29,30,2_3,10932000000,3.57,18,18
419,福特GT,,1104355013777030000,0.1,1000,30,30,2_3,22153000000,3.43,19,18
420,桑塔纳,,18335,0.1,1,1,1,2_4,45,8.67,1,18
421,捷达,,275025,0.1,2,2,2,2_4,53,8.83,1,18
422,朗逸,,852577,0.1,2,3,3,2_4,108,9,1,18
423,凌度,,2557732,0.1,3,4,5,2_4,220,8.73,1,18
424,帕萨特,,7673541,0.1,3,5,6,2_4,447,8.37,2,18
425,途观L,,23020124,0.1,4,6,7,2_4,908,8.09,2,18
426,途昂,,69060374,0.1,4,7,8,2_4,1844,7.8,2,18
427,辉昂,,207145292,0.1,5,8,9,2_4,3750,7.53,3,18
428,凯路威,,642331318,0.1,5,9,10,2_4,7614,7.27,3,18
429,迈特威,,2055255749,0.1,6,10,11,2_4,15479,7.02,3,18
430,思域,,6782230673,0.1,6,11,12,2_4,31426,6.77,4,18
431,INSPIRE,,23059721747,0.1,8,12,13,2_4,63879,6.53,4,18
432,杰德,,80709213060,0.1,10,13,14,2_4,129679,6.3,5,18
433,思铂睿,,282471807983,0.1,15,14,15,2_4,263619,6.08,5,18
434,哥瑞,,819168243151,0.1,20,15,16,2_4,535221,5.87,6,18
435,艾立坤,,2211851863686,0.1,25,16,17,2_4,1088000,5.66,6,18
436,雅阁,,5972000031952,0.1,35,17,18,2_4,2210000,5.47,7,18
437,冠道,,17318686642813,0.1,45,18,19,2_4,4497000,5.28,7,18
438,缤智,,51956070895256,0.1,60,19,20,2_4,9111000,5.08,8,18
439,奥德赛,,161110856804523,0.1,80,20,21,2_4,18551000,4.92,9,18
440,福克斯,,515441645448701,0.1,100,21,22,2_4,37597000,4.73,10,18
441,福睿斯,,1700857731403260,0.1,130,22,23,2_4,76364000,4.57,11,18
442,蒙迪欧,,5612753100751130,0.1,160,23,24,2_4,155486000,4.42,12,18
443,锐界,,16276983992178300,0.1,200,24,25,2_4,316219000,4.27,13,18
444,翼虎,,50458595902152800,0.1,250,25,26,2_4,642319000,4.12,14,18
445,翼博,,121077542722275000,0.1,300,26,27,2_4,1303000000,3.97,15,18
446,金牛座,,242205745504266000,0.1,400,27,28,2_4,2652000000,3.83,16,18
447,撼路者,,581293789210239000,0.1,500,28,29,2_4,5387000000,3.7,17,18
448,探险者,,1220716957341500000,0.1,750,29,30,2_4,10932000000,3.57,18,18
449,福特GT,,3051748180497640000,0.1,1000,30,30,2_4,22153000000,3.43,19,18
