商品Id(对应item.txt中的第一列道具id),钻石价格（如果是购买钻石就是法币价格）,金币价格（一律填1个的价格，有程序来计算总价）,数量 （不填写的话，默认数量为1; 钻石和金币两种价格对应的数量一致）,是否上架  1 - 上架   0 - 下架,描述
0,6,,60,1,60颗钻石
0,30,,300,1,300颗钻石
0,68,,680,1,680颗钻石
0,128,,1280,1,1280颗钻石
0,328,,3280,1,3280颗钻石
0,648,,6480,1,6480颗钻石
8,188,20000000_0.1,1,1,寒星大陆技能点
8,1880,18000000_0.1,10,1,10X 寒星大陆技能点
9,188,20000000_0.1,1,1,流浪者荒漠技能点
9,1880,18000000_0.1,10,1,10X 流浪者荒漠技能点
10,188,20000000_0.1,1,1,永夜森林技能点
10,1880,18000000_0.1,10,1,10X 永夜森林技能点
11,25,,1,1,2X倍金币收益
12,140,,1,1,2X倍金币收益
13,900,,1,1,2X倍金币收益
14,40,,1,1,4X倍金币收益
15,260,,1,1,4X倍金币收益
16,1600,,1,1,4X倍金币收益
17,120,,1,1,10X倍金币收益
18,720,,1,1,10X倍金币收益
19,1800,,1,1,50X倍金币收益
23,18,,1,1,
20,16,,1,1,
