%YAML 1.1
%TAG !u! tag:unity3d.com,2011:
--- !u!114 &11400000
MonoBehaviour:
  m_ObjectHideFlags: 0
  m_CorrespondingSourceObject: {fileID: 0}
  m_PrefabInternal: {fileID: 0}
  m_GameObject: {fileID: 0}
  m_Enabled: 1
  m_EditorHideFlags: 0
  m_Script: {fileID: 11500000, guid: f1b3b4b945939a54ea0b23d3396115fb, type: 3}
  m_Name: New SkeletonData
  m_EditorClassIdentifier: 
  atlasAssets:
  - {fileID: 11400000, guid: 83d201ea682514e79a40c9772e26e610, type: 2}
  scale: 0.01
  skeletonJSON: {fileID: 4900000, guid: dec819b6f2d804d9d9e5f72c0bd05d28, type: 3}
  fromAnimation: []
  toAnimation: []
  duration: []
  defaultMix: 0
  controller: {fileID: 0}
